"ExperimentID" "clients" "connections" "msgSize" "MeanConnectionTake" "MeanExecuteQuery" "MeanSend" "ConnectionTakeSD" "ExecuteQuerySD" "sendSD"
650 75 30 1999 22.9011207294637 36.110097770408 59.9505063067125 31.5531282778072 36.5702849551869 43.3330313241645
651 100 30 1999 52.9516489178976 38.4785162868642 92.4488253125305 46.3124245864779 38.1150228801864 52.9800301042823
652 125 30 1999 78.1142805149902 40.42476531047 119.577604323745 61.8117944930648 41.0377323238358 65.8763634432796
653 150 30 1999 97.0011393422411 38.9167635284956 136.964271115688 68.7641236811358 38.4765221293343 70.0749611839929
654 175 30 1999 118.838222931702 39.0708890647849 158.956157179463 79.4948841361439 38.927651679256 79.4690695495589
655 200 30 1999 139.850901083359 38.7850355872676 179.631394566658 87.410627850489 39.098225881379 90.6395611489934
656 10 30 1999 0 15.4559964905176 15.5652966187487 0 17.1154689926175 17.1279036015469
657 10 15 1999 0 15.6031054852321 15.7615189873418 0 17.2946164801588 17.2967085180902
658 25 15 1999 2.57237699493037 19.8061912364733 22.6861511589031 12.3281588847502 23.0723985021627 26.5880560443103
659 50 15 1999 16.0987771603263 21.3801709853441 38.0651058313484 30.4311343070297 25.5748404177941 39.3728578381869
660 75 15 1999 49.1507978941591 22.7661027111722 72.7752304346228 43.6093330446197 26.8357535149889 48.7757796848194
661 100 15 1999 77.2661812755085 23.0056332616698 101.170904796748 52.5445465354532 27.3651235810675 57.3497917696049
662 125 15 1999 101.576527204106 22.9366561149158 125.371960344703 61.118329963713 27.2845614935792 64.2678809138142
663 150 15 1999 125.760028417365 23.1226630013201 149.817122793647 70.8738779710293 28.1244123880419 73.5238785869993
664 10 20 1999 0 15.0508554651908 15.1849627104917 0 16.6864760644477 16.6965201821717
665 25 20 1999 0.875657957373883 21.2330044269753 22.3453992778114 6.97194239468606 25.141258340269 26.2701597576265
