Clients Connections MsgSize PThroughput Psend Pread readQ writeQ
10 5 1999 100.0 21.0488168954 7.52157314745 2.10488168954 0.752157314745
15 5 1999 150.0 29.2811576754 15.4117368835 4.39217365131 2.31176053252
20 5 1999 200.0 47.0427928876 33.1526763915 9.40855857752 6.63053527831
25 5 1999 220.454255579 63.6326450836 49.7695658845 14.0280874024 10.9719125976
30 5 1999 225.0837021 73.6842509449 59.5994995891 16.5851239892 13.4148760108
35 5 1999 231.7563083 82.5382346224 68.4824657709 19.1287565497 15.8712434503
40 5 1999 236.215403614 91.7172082295 77.6197587423 21.6650173603 18.3349826397
45 5 1999 240.061255687 100.794141986 86.6580142191 24.1967682912 20.8032317088
50 5 1999 242.979860719 109.999579941 95.7787913692 26.7276826133 23.2723173867
10 8 1999 100.0 20.3026266991 5.41452660665 2.03026266991 0.541452660665
15 8 1999 150.0 23.076816907 8.33261408324 3.46152253605 1.24989211249
20 8 1999 200.0 28.7933048343 13.68100202 5.75866096685 2.736200404
25 8 1999 250.0 36.3339378937 21.2344868434 9.08348447343 5.30862171084
30 8 1999 300.0 50.7550580479 35.5869982627 15.2265174144 10.6760994788
35 8 1999 318.657786512 62.5964726883 47.2392240418 19.9468534303 15.0531465697
40 8 1999 322.06919469 69.9368227175 54.2600910497 22.5244961718 17.4755038282
45 8 1999 321.125409069 78.1781342441 61.9540344635 25.1049853394 19.8950146606
50 8 1999 329.856530873 83.7974857719 67.783566353 27.6411479526 22.3588520474
5 1 1999 50.0 14.5337591138 7.94370613123 0.726687955692 0.397185306562
10 1 1999 100.0 42.6933768229 38.5444944873 4.26933768229 3.85444944873
15 1 1999 109.327043992 70.2906018382 66.9124126433 7.68466371936 7.31533628064
20 1 1999 111.527952962 91.4130209449 87.9142191675 10.1951071 9.80489289998
25 1 1999 113.919003113 111.447431068 108.006736515 12.6959802468 12.3040197532
30 1 1999 118.015085721 128.747966432 125.45682287 15.1942022948 14.8057977052
5 2 1999 50.0 17.8102446913 6.86257915329 0.890512234565 0.343128957665
10 2 1999 100.0 50.9412388834 40.4470696044 5.09412388834 4.04470696044
15 2 1999 101.134331884 79.8011398044 68.5164465238 8.07063495772 6.92936504228
20 2 1999 104.24929973 101.552732536 90.2950789297 10.5868012525 9.41319874749
25 2 1999 105.285999277 124.471538596 112.976936715 13.1051103226 11.8948896774
30 2 1999 106.985311495 145.940790633 134.471534953 15.6135209457 14.3864790543
5 4 1999 50.0 15.1223669239 3.49329894878 0.756118346196 0.174664947439
10 4 1999 100.0 21.9555857342 9.19935573494 2.19555857342 0.919935573494
15 4 1999 150.0 35.0907972507 22.0037176608 5.26361958761 3.30055764911
20 4 1999 184.078654938 60.7884926585 47.8607149681 11.1898639643 8.8101360357
25 4 1999 188.469163276 72.9151854766 59.7325090613 13.7422639969 11.2577360031
30 4 1999 195.910706631 83.2800682588 69.8509194036 16.3154570208 13.6845429792
35 4 1999 197.467983353 95.3009854107 81.9429374052 18.8188934006 16.1811065994
40 4 1999 202.221746699 105.563868211 92.2387947212 21.347309818 18.652690182
5 10 1999 50.0 13.5245261191 1.87769782244 0.676226305957 0.0938848911221
10 10 1999 100.0 16.0417197135 3.33303816588 1.60417197135 0.333303816588
15 10 1999 150.0 21.5829814255 6.68918845983 3.23744721383 1.00337826897
25 10 1999 250.0 31.2422670971 15.4645093327 7.81056677427 3.86612733319
30 10 1999 300.0 37.7831500017 22.0372682344 11.3349450005 6.61118047033
40 10 1999 376.446443208 61.1270383811 45.129776424 23.0110561824 16.9889438176
50 10 1999 382.591988859 73.653141424 57.0343832917 28.1791018631 21.8208981369
75 10 1999 411.837822879 99.372489978 82.7380298274 40.9253499266 34.0746500734
100 10 1999 428.318258262 125.08498934 108.386262634 53.576184769 46.423815231
25 30 1999 250.0 25.6294826681 6.35696169608 6.40737066702 1.58924042402
50 30 1999 500.0 63.3466555238 35.6227562503 31.6733277619 17.8113781252
75 30 1999 489.902190747 93.3473026505 59.7444806006 45.7310480688 29.2689519312
100 30 1999 503.847552198 117.211667773 81.2610638372 59.0568118966 40.9431881034
125 30 1999 509.540362874 141.561123439 103.758009466 72.1311062058 52.8688937942
150 30 1999 551.856912919 154.064966541 117.744621213 85.0218168246 64.9781831754
175 30 1999 566.765810349 172.55331948 136.216187792 97.7973219435 77.2026780565
200 30 1999 586.182952943 188.610900948 152.579505555 110.560494875 89.4395051251
10 30 1999 100.0 16.3302227736 2.02607941728 1.63302227736 0.202607941728
10 15 1999 100.0 17.4151649294 2.98226058202 1.74151649294 0.298226058202
25 15 1999 250.0 29.8761598177 11.8226636274 7.46903995442 2.95566590686
50 15 1999 451.321978189 65.0024062725 45.7832465793 29.3370145859 20.6629854141
75 15 1999 468.879681115 90.2702536583 69.685494097 42.3258877495 32.6741122505
100 15 1999 491.290898106 112.180704038 91.3646911358 55.1133588367 44.8866411633
125 15 1999 510.784505914 132.692667778 112.028929203 67.7773587492 57.2226412508
150 15 1999 519.522256352 154.793038687 133.933763997 80.4184287263 69.5815712737
10 20 1999 100.0 16.3025342413 2.37908198024 1.63025342413 0.237908198024
25 20 1999 250.0 29.0759708223 9.69826924588 7.26899270557 2.42456731147
50 20 1999 498.131502047 60.8833558668 39.4917454761 30.3279175076 19.6720824924
75 20 1999 521.428555085 83.5615342308 60.2740867159 43.5713700546 31.4286299454
100 20 1999 547.097857091 103.3264799 79.4561771763 56.5296957342 43.4703042658
5 50 1999 50.0 14.3927079102 1.22333733553 0.719635395512 0.0611668667765
10 50 1999 100.0 15.4489251942 1.63530515088 1.54489251942 0.163530515088
25 50 1999 250.0 24.1363648624 4.36411919808 6.03409121559 1.09102979952
50 50 1999 500.0 58.3511719123 24.3668184023 29.1755859562 12.1834092011
75 50 1999 455.177688129 107.425242602 57.3455753792 48.8975735745 26.1024264255
100 50 1999 438.025447995 143.707919058 84.5893190538 62.9477256258 37.0522743742
125 50 1999 473.250899028 161.622519386 102.507987828 76.4880026028 48.5119973972
150 50 1999 500.629804751 179.529064524 120.093528011 89.87760052 60.12239948
175 50 1999 519.509284095 198.270862329 138.5854853 103.003553746 71.9964462543
200 50 1999 537.679811353 215.832776331 156.13581125 116.048926462 83.9510735384
60 30 1999 515.927841782 72.720478319 43.5748543633 37.5185194324 22.4814805676
65 30 1999 526.390673761 76.4641557216 47.0182751802 40.2500184488 24.7499815512
70 30 1999 525.570478 81.7669091971 51.4216980975 42.9742735513 27.0257264487
5 8 1999 50.0 13.3471682832 2.043413044 0.66735841416 0.1021706522
