REVISED DATA: MODELLING INPUT               
clients connections msgSize SendExec    ReadExec    ASSend  ASRead Thintime
10	5	1999	14.9864686133	1.0153869643	0.230681293	0.058816544	79.6350062988
15	5	1999	15.6016028191	1.0166746341	0.4165942575	0.2496756129	69.9699391132
20	5	1999	16.1956167282	1.0229661245	0.5357887848	0.3622336773	54.8132920228
25	5	1999	16.4490404177	1.0258372729	0.6266556935	0.4307327562	40.3061394781
30	5	1999	16.7005689589	1.01273125	0.7152297666	0.5622824679	-4.1435709101
35	5	1999	16.6642655341	1.0136244039	0.7233897164	0.5886242477	-30.0707382754
40	5	1999	16.7043853172	1.011845234	0.7307324338	0.6090508128	-49.5507455752
45	5	1999	16.7153266332	1.0152498051	0.7601278448	0.6203389404	-68.6745073523
50	5	1999	16.7517161608	1.0140059019	0.7715798951	0.5919412583	-87.9286186371
10	8	1999	16.3140107241	1.1633354207	0.1828790314	0.0392302875	80.8488748273
15	8	1999	16.1502023193	1.1110495112	0.2296380858	0.0702163287	78.9715379564
20	8	1999	16.6458054678	1.1239452962	0.3787002574	0.2083097165	73.1243246193
25	8	1999	16.8098633761	1.1429083366	0.4409685577	0.2752889905	67.5530336566
30	8	1999	17.1473464295	1.1322702071	0.5456913283	0.3551194708	58.9754894548
35	8	1999	17.4898402112	1.1355823014	0.6076547357	0.4197677439	49.0353050769
40	8	1999	17.8318993129	1.1412263037	0.6605286716	0.4816285906	36.6078231637
45	8	1999	18.3431320241	1.1037062442	0.8045354269	0.6016309803	8.3856255481
50	8	1999	18.1860716054	1.1595834868	0.79027293	0.6109145756	-24.882948191
5	1	1999	8.6543167913	1.0027206257	0.4439496941	0.3262370345	52.5611867123
10	1	1999	7.913387063	1.0014483649	0.5067784798	0.27678427	34.6775630454
15	1	1999	7.6445689483	1.0013859374	0.4938129642	0.331038837	-37.5896251547
20	1	1999	7.5715837497	1.0017236025	0.687930516	0.3905434783	-85.3630967303
25	1	1999	7.4739677667	1.0016900197	0.5560110843	0.2850752661	-129.485625673
30	1	1999	7.2252165401	1.0007127055	0.5851336169	0.353026771	-166.3359974055
5	2	1999	12.7445880124	1.0038235095	0.3512041672	0.0433105502	78.3705293698
10	2	1999	14.6664870596	1.0011995619	0.6231032625	0.2604787817	45.3306647592
15	2	1999	15.8664402274	1.0019060565	0.7041343349	0.2468587336	-31.9602851814
20	2	1999	15.9531261556	1.0026493007	0.6557279764	0.3621401613	-76.6610712004
25	2	1999	16.1634270335	1.0014812377	0.676058742	0.3451582979	-123.4858208451
30	2	1999	16.1542002129	1.0016807227	0.6799852716	0.3999668282	-169.0844862765
5	4	1999	12.9457597352	1.0039525692	0.1744042452	0.0063511368	84.7409940447
10	4	1999	14.3487298705	1.0036842105	0.2863242576	0.1105020208	77.6092685558
15	4	1999	15.1649351833	1.0032707298	0.4695791756	0.2687810548	62.5319614158
20	4	1999	15.8495334302	1.0066558655	0.597980264	0.4068824646	42.2689489194
25	4	1999	16.1527408921	1.004278974	0.6603447327	0.5193628209	-11.7826524851
30	4	1999	15.9925473897	1.0047625876	0.7918253553	0.2906135606	-35.3361591466
35	4	1999	16.2465162625	1.0042602161	0.739597592	0.555980978	-59.0806445097
40	4	1999	16.1450554938	1.004505869	0.7246770994	0.5031542406	-80.8188512844
5	10	1999	12.6937502108	1.0073224228	0.1337650511	0.0034081323	85.4787569109
10	10	1999	13.8354368441	1.0652944752	0.1728140924	0.0158381737	84.2269905749
15	10	1999	16.3334046651	1.2118276542	0.1918042586	0.0751192684	80.2082448139
25	10	1999	17.3701438751	1.2171052182	0.3762604279	0.2276471616	71.870565944
30	10	1999	17.4357363902	1.2236948505	0.4322465546	0.2665477756	68.430859394
40	10	1999	18.0302979237	1.2274295304	0.5593488393	0.3798542881	54.3902404438
50	10	1999	18.6791828171	1.2337818007	0.6983865886	0.5261530524	30.5874237232
75	10	1999	18.6952489196	1.2825525012	0.8151372428	0.6314813182	-56.6603084397
100	10	1999	18.7844011767	1.2640911566	0.7983281837	0.6721918477	-112.2016845357
25	30	1999	21.0882681716	1.6707570489	0.1284288685	0.0967838322	75.9686179165
50	30	1999	30.3113757791	2.0287279219	0.4694624456	0.4122715691	58.8945579213
75	30	1999	36.1100977704	2.0373194281	0.9392878068	0.7018256818	27.0018256821
100	30	1999	38.4785162869	1.9970088154	1.0186601078	0.8193542221	-30.2258567412
125	30	1999	40.4247653105	2.0881146691	1.0385584983	0.8239708301	-78.3325022479
150	30	1999	38.9167635285	2.0984281784	1.046368245	0.8393787294	-110.514120909
175	30	1999	39.0708890648	2.2522072594	1.047045183	0.833901584	-149.430491346
200	30	1999	38.7850355873	2.2167662568	0.995457896	0.85069535	-184.0121005267
10	30	1999	15.4559964905	1.1401701898	0.1093001282	0.0376173431	82.5598794852
10	15	1999	15.6031054852	1.1288851351	0.1584135021	0.0207432432	82.5863700108
25	15	1999	19.8061912365	1.4900945167	0.3075829275	0.1874023271	74.336833989
50	15	1999	21.3801709853	1.4935292387	0.5861576857	0.4584886986	51.1201989097
75	15	1999	22.7661027112	1.4979101061	0.8583298293	0.7287415418	-9.2091178762
100	15	1999	23.0056332617	1.5350421645	0.8990902596	0.7543265593	-69.2037847001
125	15	1999	22.9366561149	1.5954250617	0.8587770257	0.7558381994	-114.4632681799
150	15	1999	23.1226630013	1.6374613582	0.934431375	0.7845524817	-161.3973745142
10	20	1999	15.0508554652	1.1137737697	0.1341072453	0.026362009	83.1062927335
25	20	1999	21.233004427	1.6275354038	0.2367368935	0.1636942415	74.9710334973
50	20	1999	23.6282220627	1.6489455047	0.5198875001	0.4233925532	58.4088813285
75	20	1999	25.4698612522	1.6149169134	0.8063241119	0.6678253879	22.4022633235
100	20	1999	26.0100128693	1.6425869748	0.964787221	0.7624460181	-35.6078799091
5	50	1999	14.1369345037	1.0129694677	0.0915935179	0.0057079168	84.031767713
10	50	1999	14.9302337347	1.1360874848	0.0997335492	0.0344943972	82.9082460447
25	50	1999	21.4840056766	1.6301946416	0.1276354476	0.1069098438	75.5954658793
50	50	1999	36.6637526975	2.2397993577	0.1751068106	0.1977349959	59.6448696224
75	50	1999	53.4977260125	2.9041274623	0.7905995916	0.6271665157	29.2373519521
100	50	1999	62.4783884643	2.9011766733	1.2084805553	0.9020138784	-27.3263348566
125	50	1999	62.5484364609	3.0021882826	1.2423894747	0.9319340555	-65.6275203375
150	50	1999	62.7405043203	2.9109424172	1.2606595172	0.9261564492	-100.9819581517
175	50	1999	63.1933138793	3.0648464397	1.2254286356	0.9498349638	-137.765546173
200	50	1999	63.1396753459	3.2396347679	1.4416010475	0.9391501428	-172.9169215727
60	30	1999	31.6661252853	1.9871485241	0.6238682217	0.5220189293	50.4284577924
65	30	1999	31.9484369342	1.9793568898	0.6788332328	0.5677207945	47.746029258
70	30	1999	32.8514273661	1.9850536435	0.7414403034	0.6158930518	42.2101874398
5	8	1999	12.321820083	1.0031040184	0.1901035518	0.0020243598	85.8665574709
