experimentId	dbMachine	dbPort	serverMachine	clientMachine	waitInterval	pollInterval	poolSize	messageSize	noRandomClients	clientRunTime 
650	dryad01.ethz.ch	44779	dryad02.ethz.ch	dryad03.ethz.ch		100	10	30	1999	75	800
651	dryad01.ethz.ch	44779	dryad02.ethz.ch	dryad03.ethz.ch		100	10	30	1999	100	800
652	dryad01.ethz.ch	44779	dryad02.ethz.ch	dryad03.ethz.ch		100	10	30	1999	125	800
653	dryad01.ethz.ch	44779	dryad02.ethz.ch	dryad03.ethz.ch		100	10	30	1999	150	800
654	dryad01.ethz.ch	44779	dryad02.ethz.ch	dryad03.ethz.ch		100	10	30	1999	175	800
655	dryad01.ethz.ch	44779	dryad02.ethz.ch	dryad03.ethz.ch		100	10	30	1999	200	800
656	dryad01.ethz.ch	44779	dryad02.ethz.ch	dryad03.ethz.ch		100	10	30	1999	10	800
657	dryad01.ethz.ch	44779	dryad02.ethz.ch	dryad03.ethz.ch		100	10	15	1999	10	800
658	dryad01.ethz.ch	44779	dryad02.ethz.ch	dryad03.ethz.ch		100	10	15	1999	25	800
659	dryad01.ethz.ch	44779	dryad02.ethz.ch	dryad03.ethz.ch		100	10	15	1999	50	800
660	dryad01.ethz.ch	44779	dryad02.ethz.ch	dryad03.ethz.ch		100	10	15	1999	75	800
661	dryad01.ethz.ch	44779	dryad02.ethz.ch	dryad03.ethz.ch		100	10	15	1999	100	800
662	dryad01.ethz.ch	44779	dryad02.ethz.ch	dryad03.ethz.ch		100	10	15	1999	125	800
663	dryad01.ethz.ch	44779	dryad02.ethz.ch	dryad03.ethz.ch		100	10	15	1999	150	800
664	dryad01.ethz.ch	44779	dryad02.ethz.ch	dryad03.ethz.ch		100	10	20	1999	10	800
665	dryad01.ethz.ch	44779	dryad02.ethz.ch	dryad03.ethz.ch		100	10	20	1999	25	800
