experimentId	dbMachine	dbPort	serverMachine	clientMachine	waitInterval	pollInterval	poolSize	messageSize	noRandomClients	clientRunTime 
666	dryad09.ethz.ch	44779	dryad10.ethz.ch	dryad11.ethz.ch	100	10	20	1999	50 800
667	dryad09.ethz.ch	44779	dryad10.ethz.ch	dryad11.ethz.ch	100	10	20	1999	75 800
668	dryad09.ethz.ch	44779	dryad10.ethz.ch	dryad11.ethz.ch	100	10	20	1999	100 800
669	dryad09.ethz.ch	44779	dryad10.ethz.ch	dryad11.ethz.ch	100	10	50	1999	5 800
670	dryad09.ethz.ch	44779	dryad10.ethz.ch	dryad11.ethz.ch	100	10	50	1999	10 800
671	dryad09.ethz.ch	44779	dryad10.ethz.ch	dryad11.ethz.ch	100	10	50	1999	25 800
672	dryad09.ethz.ch	44779	dryad10.ethz.ch	dryad11.ethz.ch	100	10	50	1999	50 800
673	dryad09.ethz.ch	44779	dryad10.ethz.ch	dryad11.ethz.ch	100	10	50	1999	75 800
674	dryad09.ethz.ch	44779	dryad10.ethz.ch	dryad11.ethz.ch	100	10	50	1999	100 800
675	dryad09.ethz.ch	44779	dryad10.ethz.ch	dryad11.ethz.ch	100	10	50	1999	125 800	
676	dryad09.ethz.ch	44779	dryad10.ethz.ch	dryad11.ethz.ch	100	10	50	1999	150 800
677	dryad09.ethz.ch	44779	dryad10.ethz.ch	dryad11.ethz.ch	100	10	50	1999	175 800
678	dryad09.ethz.ch	44779	dryad10.ethz.ch	dryad11.ethz.ch	100	10	50	1999	200 800
679	dryad09.ethz.ch	44779	dryad10.ethz.ch	dryad11.ethz.ch	100	10	30	1999	60 800
680	dryad09.ethz.ch	44779	dryad10.ethz.ch	dryad11.ethz.ch	100	10	30	1999	65 800
681	dryad09.ethz.ch	44779	dryad10.ethz.ch	dryad11.ethz.ch	100	10	30	1999	70 800
682	dryad09.ethz.ch	44779	dryad10.ethz.ch	dryad11.ethz.ch	100	10	8	1999	5 800
