experimentId	dbMachine	dbPort	serverMachine	clientMachine	waitInterval	pollInterval	poolSize	messageSize	noRandomClients	clientRunTime 
518	dryad09.ethz.ch	44779	dryad10.ethz.ch	dryad11.ethz.ch		100	10	10	1	10	800
519	dryad09.ethz.ch	44779	dryad10.ethz.ch	dryad11.ethz.ch		100	10	10	1	25	800
520	dryad09.ethz.ch	44779	dryad10.ethz.ch	dryad11.ethz.ch		100	10	10	1	50	800
521	dryad09.ethz.ch	44779	dryad10.ethz.ch	dryad11.ethz.ch		100	10	10	1	75	800
522	dryad09.ethz.ch	44779	dryad10.ethz.ch	dryad11.ethz.ch		100	10	10	1	100	800
523	dryad09.ethz.ch	44779	dryad10.ethz.ch	dryad11.ethz.ch		100	10	15	1	10	800
524	dryad09.ethz.ch	44779	dryad10.ethz.ch	dryad11.ethz.ch		100	10	15	1	25	800
525	dryad09.ethz.ch	44779	dryad10.ethz.ch	dryad11.ethz.ch		100	10	15	1	50	800
526	dryad09.ethz.ch	44779	dryad10.ethz.ch	dryad11.ethz.ch		100	10	15	1	75	800
527	dryad09.ethz.ch	44779	dryad10.ethz.ch	dryad11.ethz.ch		100	10	15	1	100	800
528	dryad09.ethz.ch	44779	dryad10.ethz.ch	dryad11.ethz.ch		100	10	20	1	10	800
529	dryad09.ethz.ch	44779	dryad10.ethz.ch	dryad11.ethz.ch		100	10	20	1	25	800
530	dryad09.ethz.ch	44779	dryad10.ethz.ch	dryad11.ethz.ch		100	10	20	1	50	800
531	dryad09.ethz.ch	44779	dryad10.ethz.ch	dryad11.ethz.ch		100	10	20	1	75	800
532	dryad09.ethz.ch	44779	dryad10.ethz.ch	dryad11.ethz.ch		100	10	20	1	100	800
533	dryad09.ethz.ch	44779	dryad10.ethz.ch	dryad11.ethz.ch		100	10	20	1	125	800
534	dryad09.ethz.ch	44779	dryad10.ethz.ch	dryad11.ethz.ch		100	10	20	1	150	800
