"ExperimentID" "clients" "connections" "msgSize" "Mean" "Deviation" "Error"
601 10 5 1999 2.39780477046789 4.80003901208681 1.61607229910667
602 15 5 1999 7.06657333424389 9.62196047414535 0.900363987790251
603 20 5 1999 14.6037432411287 16.4254053561531 0.649967224579671
604 25 5 1999 21.8778256381047 22.2623205266584 0.532168918780719
605 30 5 1999 44.5472569646284 22.5790235666857 0.248366615372585
606 35 5 1999 57.62147701347 25.5363377216773 0.217163069122028
607 40 5 1999 67.2735720022085 27.8263130667497 0.20306739947895
608 45 5 1999 76.6428490608735 30.160386353728 0.193376370291914
609 50 5 1999 86.2538028257654 32.1073602127432 0.183030148599829
610 10 8 1999 1.51153383993095 1.8401854613162 0.981645631061018
611 15 8 1999 1.96834268645909 3.39584431742767 1.13740274783489
612 20 8 1999 4.26000307130548 7.59121719527163 1.0201507129832
613 25 8 1999 6.88988815150199 11.6085379603372 0.86690775104068
614 30 8 1999 10.6748485888657 15.0385060846596 0.666005259456189
615 35 8 1999 15.1123450730151 20.0641333423672 0.588412029364576
616 40 8 1999 20.6273511316449 23.957952758527 0.48979779198234
617 45 8 1999 34.43187294727 27.4149890210045 0.323138937099927
618 50 8 1999 52.2079440652857 34.3928260777468 0.267167877478382
619 5 1 1999 20.5257949328346 12.0796393797161 0.672681308103792
620 10 1 1999 31.0197888491406 22.4216170638767 0.591819266723456
621 15 1 1999 66.4631186670363 28.1393223146237 0.325641427293304
622 20 1 1999 90.2654430261809 25.9562979902587 0.222096286614658
623 25 1 1999 111.685687069813 27.7986809555375 0.191219585632036
624 30 1 1999 131.240645601948 35.6766546515202 0.205309625580393
625 5 2 1999 4.87906473116097 7.00434879549145 1.63680248774831
626 10 2 1999 21.23163861455 19.810480802598 0.762587177390552
627 15 2 1999 59.694893466119 18.5318304619094 0.233890852643189
628 20 2 1999 81.9533486272478 24.9767255803529 0.229807278323114
629 25 2 1999 104.841263428794 28.9710554851943 0.209502544037166
630 30 2 1999 127.771568347915 35.269681021872 0.209587591722146
631 5 4 1999 1.21192567567568 2.051135128969 1.92813874320845
632 10 4 1999 3.94176570458404 6.82653971265142 1.39865042885288
633 15 4 1999 11.5061881752291 12.7909033120346 0.735538165222272
634 20 4 1999 21.9587423917327 20.601324339038 0.544171562088162
635 25 4 1999 49.0505297596958 20.0681153890173 0.220678771157631
636 30 4 1999 58.9042170175187 20.3205027856421 0.185760549659843
637 35 4 1999 72.1935921471794 23.9393062264009 0.179421679752085
638 40 4 1999 83.8343986186632 25.6384760395418 0.164952689383813
639 5 10 1999 1.08352174940101 0.346723890832214 0.36435451412322
640 10 10 1999 1.23666480928018 0.509755991365134 0.331987782724897
641 15 10 1999 1.88064207265559 2.33388886494103 0.816361840530568
642 25 10 1999 4.5604927799933 8.54784612146436 0.960807293597133
643 30 10 1999 6.09865398842671 10.4727798231993 0.806022076444325
644 40 10 1999 11.7359985081651 17.450479985714 0.61408500732795
645 50 10 1999 22.3982733447597 24.1825248258207 0.408913132662651
646 75 10 1999 66.9732679727037 42.4137077085927 0.233096653315714
647 100 10 1999 93.5773038357473 52.8152980493922 0.208041209671883
648 25 30 1999 2.41086950616613 1.18839636233709 0.251769299178468
649 50 30 1999 4.5917125711968 7.07582053041047 0.56235229954905
