"ExperimentID" "clients" "connections" "msgSize" "Mean" "Deviation" "Error"
601 10 5 1999 98.2637729549249 3.48871181895584 0.28489591484155
602 15 5 1999 146.449081803005 4.99199978611123 0.273528425564059
603 20 5 1999 191.743333333333 9.08359189004715 0.379829084945132
604 25 5 1999 233.435940099834 13.5131900806733 0.463743637767245
605 30 5 1999 266 20.6154066574675 0.62138554438417
606 35 5 1999 266.511666666667 20.8207998581573 0.626371603287249
607 40 5 1999 265.331114808652 21.6952801377426 0.655035565160174
608 45 5 1999 264.944908180301 19.2908205062043 0.584264747582131
609 50 5 1999 264.556666666667 20.1385880033043 0.610325033425788
610 10 8 1999 98.4974958263773 3.37355103139665 0.274837921547883
611 15 8 1999 147.35225375626 4.71152334918848 0.256577828748201
612 20 8 1999 195.145 7.75914399440276 0.318791886467613
613 25 8 1999 241.165 11.6733980501278 0.388091286279227
614 30 8 1999 285.915141430948 14.3565706335101 0.402254912774498
615 35 8 1999 325.341666666667 19.4594290646315 0.479558157837792
616 40 8 1999 358.865671641791 22.3415096957812 0.497902221288777
617 45 8 1999 385.661716171617 32.3291862562613 0.668759113440086
618 50 8 1999 388.278877887789 32.2679348461387 0.662992896188511
619 5 1 1999 49.0150250417362 1.61559331627298 0.264494947089098
620 10 1 1999 95.5058430717863 4.27986839677659 0.359596149742112
621 15 1 1999 108.237061769616 7.05879953562488 0.523322508994742
622 20 1 1999 107.272120200334 6.341012179754 0.474336214909217
623 25 1 1999 108.442404006678 6.40152612163724 0.473695158582871
624 30 1 1999 112.207011686144 6.70500369126395 0.479505491957279
625 5 2 1999 49.2637729549249 1.46550291179674 0.238711628954843
626 10 2 1999 95.8831385642738 4.27323859143895 0.357626309547627
627 15 2 1999 112.781302170284 6.56512914644821 0.467111683245077
628 20 2 1999 112.559265442404 6.71040300500821 0.478389802739589
629 25 2 1999 111.350584307179 10.1456267079373 0.731140665165067
630 30 2 1999 111.058430717863 9.75973529275976 0.705181754318984
631 5 4 1999 49.347245409015 1.56239940407941 0.254064338641855
632 10 4 1999 98.2053422370618 3.41542411926403 0.27907702731174
633 15 4 1999 146.128547579299 4.96427064169585 0.272605706851932
634 20 4 1999 190.056666666667 9.0747290170806 0.382826007043384
635 25 4 1999 219.713333333333 15.4279354054157 0.562992066949557
636 30 4 1999 220.258333333333 15.2296257249401 0.554380260504621
637 35 4 1999 218.546666666667 14.35111190502 0.526492562388608
638 40 4 1999 219.988313856427 14.9729364660503 0.546162567551231
639 5 10 1999 49.3973288814691 1.27060655347345 0.20640593757204
640 10 10 1999 98.7262103505843 2.55347441756592 0.207545635571426
641 15 10 1999 147.808013355593 4.4033510984411 0.239056136262568
642 25 10 1999 243.372712146423 10.1297015815868 0.333436063088281
643 30 10 1999 290.257903494176 13.0716630514511 0.360773467507389
644 40 10 1999 374.685 22.4229143246669 0.479818100207708
645 50 10 1999 444.641791044776 36.386551193405 0.654476532973299
646 75 10 1999 470.100826446281 40.5881603130026 0.689366044552178
647 100 10 1999 468.188429752066 43.1446534832054 0.73577977194011
648 25 30 1999 245.448333333333 9.26212586368523 0.302553002568715
649 50 30 1999 480.686046511628 29.4604747421203 0.490572902287157
